{
  "tracks": {
    "href": "https://api.spotify.com/v1/search?query=All+i+want+for+Christmas+is+you&type=track&offset=0&limit=3",
    "items": [
      {
        "album": {
          "album_type": "album",
          "artists": [
            {
              "external_urls": {
                "spotify": "https://open.spotify.com/artist/4iHNK0tOyZPYnBU7nGAgpQ"
              },
              "href": "https://api.spotify.com/v1/artists/4iHNK0tOyZPYnBU7nGAgpQ",
              "id": "4iHNK0tOyZPYnBU7nGAgpQ",
              "name": "Mariah Carey",
              "type": "artist",
              "uri": "spotify:artist:4iHNK0tOyZPYnBU7nGAgpQ"
            }
          ],
          "available_markets": [
            "AD",
            "AE",
            "AL",
            "AR",
            "AT",
            "AU",
            "BA",
            "BE",
            "BG",
            "BH",
            "BO",
            "BR",
            "BY",
            "CA",
            "CH",
            "CL",
            "CO",
            "CR",
            "CY",
            "CZ",
            "DE",
            "DK",
            "DO",
            "DZ",
            "EC",
            "EE",
            "EG",
            "ES",
            "FI",
            "FR",
            "GB",
            "GR",
            "GT",
            "HK",
            "HN",
            "HR",
            "HU",
            "ID",
            "IE",
            "IL",
            "IN",
            "IS",
            "IT",
            "JO",
            "JP",
            "KW",
            "KZ",
            "LB",
            "LI",
            "LT",
            "LU",
            "LV",
            "MA",
            "MC",
            "MD",
            "ME",
            "MK",
            "MT",
            "MX",
            "MY",
            "NI",
            "NL",
            "NO",
            "NZ",
            "OM",
            "PA",
            "PE",
            "PH",
            "PL",
            "PS",
            "PT",
            "PY",
            "QA",
            "RO",
            "RS",
            "RU",
            "SA",
            "SE",
            "SG",
            "SI",
            "SK",
            "SV",
            "TH",
            "TN",
            "TR",
            "TW",
            "UA",
            "US",
            "UY",
            "VN",
            "XK",
            "ZA"
          ],
          "external_urls": {
            "spotify": "https://open.spotify.com/album/61ulfFSmmxMhc2wCdmdMkN"
          },
          "href": "https://api.spotify.com/v1/albums/61ulfFSmmxMhc2wCdmdMkN",
          "id": "61ulfFSmmxMhc2wCdmdMkN",
          "images": [
            {
              "height": 640,
              "url": "https://i.scdn.co/image/ab67616d0000b2734246e3158421f5abb75abc4f",
              "width": 640
            },
            {
              "height": 300,
              "url": "https://i.scdn.co/image/ab67616d00001e024246e3158421f5abb75abc4f",
              "width": 300
            },
            {
              "height": 64,
              "url": "https://i.scdn.co/image/ab67616d000048514246e3158421f5abb75abc4f",
              "width": 64
            }
          ],
          "name": "Merry Christmas",
          "release_date": "1994-11-01",
          "release_date_precision": "day",
          "total_tracks": 10,
          "type": "album",
          "uri": "spotify:album:61ulfFSmmxMhc2wCdmdMkN"
        },
        "artists": [
          {
            "external_urls": {
              "spotify": "https://open.spotify.com/artist/4iHNK0tOyZPYnBU7nGAgpQ"
            },
            "href": "https://api.spotify.com/v1/artists/4iHNK0tOyZPYnBU7nGAgpQ",
            "id": "4iHNK0tOyZPYnBU7nGAgpQ",
            "name": "Mariah Carey",
            "type": "artist",
            "uri": "spotify:artist:4iHNK0tOyZPYnBU7nGAgpQ"
          }
        ],
        "available_markets": [
          "AD",
          "AE",
          "AL",
          "AR",
          "AT",
          "AU",
          "BA",
          "BE",
          "BG",
          "BH",
          "BO",
          "BR",
          "BY",
          "CA",
          "CH",
          "CL",
          "CO",
          "CR",
          "CY",
          "CZ",
          "DE",
          "DK",
          "DO",
          "DZ",
          "EC",
          "EE",
          "EG",
          "ES",
          "FI",
          "FR",
          "GB",
          "GR",
          "GT",
          "HK",
          "HN",
          "HR",
          "HU",
          "ID",
          "IE",
          "IL",
          "IN",
          "IS",
          "IT",
          "JO",
          "JP",
          "KW",
          "KZ",
          "LB",
          "LI",
          "LT",
          "LU",
          "LV",
          "MA",
          "MC",
          "MD",
          "ME",
          "MK",
          "MT",
          "MX",
          "MY",
          "NI",
          "NL",
          "NO",
          "NZ",
          "OM",
          "PA",
          "PE",
          "PH",
          "PL",
          "PS",
          "PT",
          "PY",
          "QA",
          "RO",
          "RS",
          "RU",
          "SA",
          "SE",
          "SG",
          "SI",
          "SK",
          "SV",
          "TH",
          "TN",
          "TR",
          "TW",
          "UA",
          "US",
          "UY",
          "VN",
          "XK",
          "ZA"
        ],
        "disc_number": 1,
        "duration_ms": 241106,
        "explicit": false,
        "external_ids": {
          "isrc": "USSM19400325"
        },
        "external_urls": {
          "spotify": "https://open.spotify.com/track/0bYg9bo50gSsH3LtXe2SQn"
        },
        "href": "https://api.spotify.com/v1/tracks/0bYg9bo50gSsH3LtXe2SQn",
        "id": "0bYg9bo50gSsH3LtXe2SQn",
        "is_local": false,
        "name": "All I Want for Christmas Is You",
        "popularity": 89,
        "preview_url": "https://p.scdn.co/mp3-preview/bbafd15ff484394a0ca106d5fef0a81eeea4ef5b?cid=774b29d4f13844c495f206cafdad9c86",
        "track_number": 2,
        "type": "track",
        "uri": "spotify:track:0bYg9bo50gSsH3LtXe2SQn"
      },
      {
        "album": {
          "album_type": "single",
          "artists": [
            {
              "external_urls": {
                "spotify": "https://open.spotify.com/artist/1IxP1g9VrPzJqXFCsuyHKe"
              },
              "href": "https://api.spotify.com/v1/artists/1IxP1g9VrPzJqXFCsuyHKe",
              "id": "1IxP1g9VrPzJqXFCsuyHKe",
              "name": "Måns Zelmerlöw",
              "type": "artist",
              "uri": "spotify:artist:1IxP1g9VrPzJqXFCsuyHKe"
            },
            {
              "external_urls": {
                "spotify": "https://open.spotify.com/artist/6SsTlCsuCYleNza6xGwynu"
              },
              "href": "https://api.spotify.com/v1/artists/6SsTlCsuCYleNza6xGwynu",
              "id": "6SsTlCsuCYleNza6xGwynu",
              "name": "Agnes",
              "type": "artist",
              "uri": "spotify:artist:6SsTlCsuCYleNza6xGwynu"
            }
          ],
          "available_markets": [
            "AD",
            "AE",
            "AL",
            "AR",
            "AT",
            "AU",
            "BA",
            "BE",
            "BG",
            "BH",
            "BO",
            "BR",
            "BY",
            "CA",
            "CH",
            "CL",
            "CO",
            "CR",
            "CY",
            "CZ",
            "DE",
            "DK",
            "DO",
            "DZ",
            "EC",
            "EE",
            "EG",
            "ES",
            "FI",
            "FR",
            "GB",
            "GR",
            "GT",
            "HK",
            "HN",
            "HR",
            "HU",
            "ID",
            "IE",
            "IL",
            "IN",
            "IS",
            "IT",
            "JO",
            "JP",
            "KW",
            "KZ",
            "LB",
            "LI",
            "LT",
            "LU",
            "LV",
            "MA",
            "MC",
            "MD",
            "ME",
            "MK",
            "MT",
            "MX",
            "MY",
            "NI",
            "NL",
            "NO",
            "NZ",
            "OM",
            "PA",
            "PE",
            "PH",
            "PL",
            "PS",
            "PT",
            "PY",
            "QA",
            "RO",
            "RS",
            "RU",
            "SA",
            "SE",
            "SG",
            "SI",
            "SK",
            "SV",
            "TH",
            "TN",
            "TR",
            "TW",
            "UA",
            "UY",
            "VN",
            "XK",
            "ZA"
          ],
          "external_urls": {
            "spotify": "https://open.spotify.com/album/65SnyTMRXO40OuwoiBsMTj"
          },
          "href": "https://api.spotify.com/v1/albums/65SnyTMRXO40OuwoiBsMTj",
          "id": "65SnyTMRXO40OuwoiBsMTj",
          "images": [
            {
              "height": 640,
              "url": "https://i.scdn.co/image/ab67616d0000b2731b06d48e2c8565280d3dc725",
              "width": 640
            },
            {
              "height": 300,
              "url": "https://i.scdn.co/image/ab67616d00001e021b06d48e2c8565280d3dc725",
              "width": 300
            },
            {
              "height": 64,
              "url": "https://i.scdn.co/image/ab67616d000048511b06d48e2c8565280d3dc725",
              "width": 64
            }
          ],
          "name": "All I Want For Christmas Is You",
          "release_date": "2007-12-05",
          "release_date_precision": "day",
          "total_tracks": 1,
          "type": "album",
          "uri": "spotify:album:65SnyTMRXO40OuwoiBsMTj"
        },
        "artists": [
          {
            "external_urls": {
              "spotify": "https://open.spotify.com/artist/1IxP1g9VrPzJqXFCsuyHKe"
            },
            "href": "https://api.spotify.com/v1/artists/1IxP1g9VrPzJqXFCsuyHKe",
            "id": "1IxP1g9VrPzJqXFCsuyHKe",
            "name": "Måns Zelmerlöw",
            "type": "artist",
            "uri": "spotify:artist:1IxP1g9VrPzJqXFCsuyHKe"
          },
          {
            "external_urls": {
              "spotify": "https://open.spotify.com/artist/6SsTlCsuCYleNza6xGwynu"
            },
            "href": "https://api.spotify.com/v1/artists/6SsTlCsuCYleNza6xGwynu",
            "id": "6SsTlCsuCYleNza6xGwynu",
            "name": "Agnes",
            "type": "artist",
            "uri": "spotify:artist:6SsTlCsuCYleNza6xGwynu"
          }
        ],
        "available_markets": [
          "AD",
          "AE",
          "AL",
          "AR",
          "AT",
          "AU",
          "BA",
          "BE",
          "BG",
          "BH",
          "BO",
          "BR",
          "BY",
          "CA",
          "CH",
          "CL",
          "CO",
          "CR",
          "CY",
          "CZ",
          "DE",
          "DK",
          "DO",
          "DZ",
          "EC",
          "EE",
          "EG",
          "ES",
          "FI",
          "FR",
          "GB",
          "GR",
          "GT",
          "HK",
          "HN",
          "HR",
          "HU",
          "ID",
          "IE",
          "IL",
          "IN",
          "IS",
          "IT",
          "JO",
          "JP",
          "KW",
          "KZ",
          "LB",
          "LI",
          "LT",
          "LU",
          "LV",
          "MA",
          "MC",
          "MD",
          "ME",
          "MK",
          "MT",
          "MX",
          "MY",
          "NI",
          "NL",
          "NO",
          "NZ",
          "OM",
          "PA",
          "PE",
          "PH",
          "PL",
          "PS",
          "PT",
          "PY",
          "QA",
          "RO",
          "RS",
          "RU",
          "SA",
          "SE",
          "SG",
          "SI",
          "SK",
          "SV",
          "TH",
          "TN",
          "TR",
          "TW",
          "UA",
          "UY",
          "VN",
          "XK",
          "ZA"
        ],
        "disc_number": 1,
        "duration_ms": 258320,
        "explicit": false,
        "external_ids": {
          "isrc": "SEPQA0751916"
        },
        "external_urls": {
          "spotify": "https://open.spotify.com/track/7pCsl8MhpMZpqZwW4OkjMS"
        },
        "href": "https://api.spotify.com/v1/tracks/7pCsl8MhpMZpqZwW4OkjMS",
        "id": "7pCsl8MhpMZpqZwW4OkjMS",
        "is_local": false,
        "name": "All I Want for Christmas Is You",
        "popularity": 46,
        "preview_url": "https://p.scdn.co/mp3-preview/8f77634d13e1a0fb30338768ea2cb0c654df6cf9?cid=774b29d4f13844c495f206cafdad9c86",
        "track_number": 1,
        "type": "track",
        "uri": "spotify:track:7pCsl8MhpMZpqZwW4OkjMS"
      },
      {
        "album": {
          "album_type": "album",
          "artists": [
            {
              "external_urls": {
                "spotify": "https://open.spotify.com/artist/4iHNK0tOyZPYnBU7nGAgpQ"
              },
              "href": "https://api.spotify.com/v1/artists/4iHNK0tOyZPYnBU7nGAgpQ",
              "id": "4iHNK0tOyZPYnBU7nGAgpQ",
              "name": "Mariah Carey",
              "type": "artist",
              "uri": "spotify:artist:4iHNK0tOyZPYnBU7nGAgpQ"
            }
          ],
          "available_markets": [
            "AD",
            "AE",
            "AL",
            "AR",
            "AT",
            "AU",
            "BA",
            "BE",
            "BG",
            "BH",
            "BO",
            "BR",
            "BY",
            "CA",
            "CH",
            "CL",
            "CO",
            "CR",
            "CY",
            "CZ",
            "DE",
            "DK",
            "DO",
            "DZ",
            "EC",
            "EE",
            "EG",
            "ES",
            "FI",
            "FR",
            "GB",
            "GR",
            "GT",
            "HK",
            "HN",
            "HR",
            "HU",
            "ID",
            "IE",
            "IL",
            "IN",
            "IS",
            "IT",
            "JO",
            "KW",
            "KZ",
            "LB",
            "LI",
            "LT",
            "LU",
            "LV",
            "MA",
            "MC",
            "MD",
            "ME",
            "MK",
            "MT",
            "MX",
            "MY",
            "NI",
            "NL",
            "NO",
            "NZ",
            "OM",
            "PA",
            "PE",
            "PH",
            "PL",
            "PS",
            "PT",
            "PY",
            "QA",
            "RO",
            "RS",
            "RU",
            "SA",
            "SE",
            "SG",
            "SI",
            "SK",
            "SV",
            "TH",
            "TN",
            "TR",
            "TW",
            "UA",
            "US",
            "UY",
            "VN",
            "XK",
            "ZA"
          ],
          "external_urls": {
            "spotify": "https://open.spotify.com/album/0cS9prZ8u3fdbc7lmtCaMV"
          },
          "href": "https://api.spotify.com/v1/albums/0cS9prZ8u3fdbc7lmtCaMV",
          "id": "0cS9prZ8u3fdbc7lmtCaMV",
          "images": [
            {
              "height": 640,
              "url": "https://i.scdn.co/image/ab67616d0000b27301c44a2d3c4ae7a6682df677",
              "width": 640
            },
            {
              "height": 300,
              "url": "https://i.scdn.co/image/ab67616d00001e0201c44a2d3c4ae7a6682df677",
              "width": 300
            },
            {
              "height": 64,
              "url": "https://i.scdn.co/image/ab67616d0000485101c44a2d3c4ae7a6682df677",
              "width": 64
            }
          ],
          "name": "Merry Christmas (Deluxe Anniversary Edition)",
          "release_date": "2019-11-01",
          "release_date_precision": "day",
          "total_tracks": 29,
          "type": "album",
          "uri": "spotify:album:0cS9prZ8u3fdbc7lmtCaMV"
        },
        "artists": [
          {
            "external_urls": {
              "spotify": "https://open.spotify.com/artist/4iHNK0tOyZPYnBU7nGAgpQ"
            },
            "href": "https://api.spotify.com/v1/artists/4iHNK0tOyZPYnBU7nGAgpQ",
            "id": "4iHNK0tOyZPYnBU7nGAgpQ",
            "name": "Mariah Carey",
            "type": "artist",
            "uri": "spotify:artist:4iHNK0tOyZPYnBU7nGAgpQ"
          }
        ],
        "available_markets": [
          "AD",
          "AE",
          "AL",
          "AR",
          "AT",
          "AU",
          "BA",
          "BE",
          "BG",
          "BH",
          "BO",
          "BR",
          "BY",
          "CA",
          "CH",
          "CL",
          "CO",
          "CR",
          "CY",
          "CZ",
          "DE",
          "DK",
          "DO",
          "DZ",
          "EC",
          "EE",
          "EG",
          "ES",
          "FI",
          "FR",
          "GB",
          "GR",
          "GT",
          "HK",
          "HN",
          "HR",
          "HU",
          "ID",
          "IE",
          "IL",
          "IN",
          "IS",
          "IT",
          "JO",
          "KW",
          "KZ",
          "LB",
          "LI",
          "LT",
          "LU",
          "LV",
          "MA",
          "MC",
          "MD",
          "ME",
          "MK",
          "MT",
          "MX",
          "MY",
          "NI",
          "NL",
          "NO",
          "NZ",
          "OM",
          "PA",
          "PE",
          "PH",
          "PL",
          "PS",
          "PT",
          "PY",
          "QA",
          "RO",
          "RS",
          "RU",
          "SA",
          "SE",
          "SG",
          "SI",
          "SK",
          "SV",
          "TH",
          "TN",
          "TR",
          "TW",
          "UA",
          "US",
          "UY",
          "VN",
          "XK",
          "ZA"
        ],
        "disc_number": 1,
        "duration_ms": 241560,
        "explicit": false,
        "external_ids": {
          "isrc": "USSM19400325"
        },
        "external_urls": {
          "spotify": "https://open.spotify.com/track/1bCQIvugIRkL0yLG5cvQcZ"
        },
        "href": "https://api.spotify.com/v1/tracks/1bCQIvugIRkL0yLG5cvQcZ",
        "id": "1bCQIvugIRkL0yLG5cvQcZ",
        "is_local": false,
        "name": "All I Want for Christmas Is You",
        "popularity": 59,
        "preview_url": "https://p.scdn.co/mp3-preview/d487dc44a699a6ced4aa5f838c4265202fa503e0?cid=774b29d4f13844c495f206cafdad9c86",
        "track_number": 2,
        "type": "track",
        "uri": "spotify:track:1bCQIvugIRkL0yLG5cvQcZ"
      }
    ],
    "limit": 3,
    "next": "https://api.spotify.com/v1/search?query=All+i+want+for+Christmas+is+you&type=track&offset=3&limit=3",
    "offset": 0,
    "previous": null,
    "total": 5902
  }
}